{
    "auths": {
      "registry.gitlab.com": {
        "username": "silvestrecaiquee",
        "password": "glpat-8szefYXzvh-juCC_9eP3",
        "email": "silvestre.caiquee@gmail.com"
      }
    }
  }
  